<?xml version="1.0" encoding="utf-8"?>
<!-- Generator: Adobe Illustrator 24.0.0, SVG Export Plug-In . SVG Version: 6.00 Build 0)  -->
<svg version="1.1" id="Layer_1" xmlns="http://www.w3.org/2000/svg" xmlns:xlink="http://www.w3.org/1999/xlink" x="0px" y="0px"
	 viewBox="0 0 215 65" style="enable-background:new 0 0 215 65;" xml:space="preserve">
<style type="text/css">
	.st0{fill:#FFFFFF;}
	.st1{fill:#F46D28;stroke:#F46D28;stroke-width:2;stroke-miterlimit:10;}
</style>
<g>
	<path class="st0" d="M0.7,49.8c0-0.7-0.1-1.3-0.1-1.9c0-4.7-0.1-9.3-0.2-13.9c0-4.6-0.2-9.1-0.3-13.8c-0.1-2.3-0.1-4.6-0.1-7
		c0-1.4-0.5-4.1,1.3-4.6c0.3-0.2,0.7-0.2,1.1-0.1c0.6,0.1,1.2,0,1.8,0.1c3.5,0.6,5.9,2.5,7.5,5.6c1.6,3.2,2.3,6.7,2.1,10.2
		c-0.2,3.2-2,6.2-4.4,8.4c-1.3,1.2-2.7,1.8-4.2,2.7c-1.4,0.7-1.1,2.3-1,3.7v0.1v5.4c0,2.3,0,4.5,0,6.8v3.4c0,0.9-0.2,1.4-1.1,1.8
		c-1.6,0.5-2.8-0.3-2.5-1.9C0.9,53.1,0.8,51.4,0.7,49.8z M4.3,26.8c0,2,0.1,3.9,0.1,6c0,0.7,0.5,1.1,1.3,0.8
		c0.1-0.1,0.2-0.1,0.3-0.2c0.7-0.7,1.7-1.2,2.3-1.8c0.7-0.7,1.1-2.2,1.3-3.1c0.7-2.3,0.9-4.7,0.7-7c-0.2-2.3-0.8-4.5-1.8-6.7
		c-0.7-1.7-1.4-4.3-3.6-4.4c-0.9-0.1-1.4,0.3-1.5,1.2c-0.1,1.5,0.2,3,0.2,4.5c0.2,1.7,0.2,3.3,0.3,5L4.3,26.8z"/>
	<path class="st0" d="M19.8,54.8c1-0.4,1.5-4.2,1.7-5.1c0.5-2.4,1.3-4.9,1.7-7.2c2-10.8,2.1-7.8,1.2-10.7c-2-6.3-4.7-12.7-6.5-19
		c-0.6-2-1.9-4-0.7-4.6c1.3-0.7,2.1,1.5,2.4,2.4c2.1,6,3.2,8.5,6.9,18.1c0.7,0.7,0.2,0.2,0.2-0.3c1-4.2,1.6-8.5,2.9-12.6
		c0.6-2,1.3-5.2,2.4-7c1.3-2,2.6-0.1,2.1,2.3c-1.5,7.9-3.2,15.7-5,23.5c-0.9,3.9-1.6,6.4-3.1,10.7l-2.1,8.1
		c-0.9,3.1-4.5,5.5-6.5,1.6l-1.5-4.5c1.5,0,1.9,2.3,2.5,3.4c0.2,0.4,0.5,0.9,1,1C19.5,54.9,19.6,54.9,19.8,54.8z"/>
	<path class="st0" d="M42.8,19.4c0,2.9,0,5.6-0.1,8.4c0,1.1-0.2,2.1-0.2,3.2c0,0.1,0.1,0.4,0.2,0.4c0.2,0.1,0.6,0.1,0.7-0.1
		c0.6-0.6,1.3-1.3,1.6-2c1.2-2.4,2.2-4.9,2.8-7.5c0.2-0.8,0.6-1.5,0.7-2.3c0.8-2.6,0.9-5.3,1.2-8c0.1-0.3,0.1-0.7,0.1-1.1
		c0.1-0.6,0.4-0.9,0.9-1.1c0.6-0.2,1.1,0,1.3,0.7c0.4,1.3,0.2,2.8,0.2,4.2c-0.1,3-0.8,5.8-1.7,8.6c-0.6,2.3-1.5,4.5-2.9,6.4L45,32.6
		c-0.5,0.6-0.5,1,0.1,1.5c1.9,1.5,2.9,3.6,3.6,5.9c0.3,1,0.7,1.9,1.1,2.8c0.5,1.1,0.8,2.1,0.9,3.2l1,6.7c0.1,0.6,0.2,1.2,0.2,1.8
		c0.2,2-0.7,2.7-2.7,2.2c-0.2-0.1-0.5-0.3-0.7-0.6c-0.2-0.4-0.2-0.9-0.2-1.4c-0.2-3.4-0.7-6.8-1.6-10.1l-2-6.5
		c-0.2-0.7-0.7-1.3-1.1-1.8C43.4,36,42.9,36,42.7,36c-0.1,0-0.2,0.4-0.2,0.6c-0.2,6.2-0.3,12.6-0.1,18.8c0.1,0.7-0.1,1-0.8,1.2
		c-0.2,0.1-0.6,0.2-0.9,0.2c-1.2,0-1.9-0.7-1.9-1.9c-0.2-8.4-0.2-16.7-0.1-25.1c0-4.8-0.2-9.7,0.1-14.5c0.1-1.6-0.1-3.2,0-4.7
		c0-1,0.2-1.3,1.2-1.3c0.3-0.1,0.7-0.1,1.1,0c1.3,0.1,1.8,0.6,1.8,2C42.7,14,42.7,16.8,42.8,19.4L42.8,19.4L42.8,19.4z"/>
	<path class="st0" d="M74.2,55.2c-0.4,1.3-1.3,2.3-2.7,1.8c-1.1-0.3-1.3-1.8-1.3-2.9l-0.2-10.3c-0.1-1.6-0.2-3.3-0.2-5
		c-0.1-1.5,0.3-4.1-0.2-5.5c-0.7,1.2-1.3,4-1.5,5.4c-0.3,1.6-0.8,3.1-1.2,4.6c-0.4,2.1-0.9,4.2-1.3,6.2c-0.4,1.8-0.7,3.9-1.8,5.5
		c-1.3,2.1-3,2.4-4.6,0.3c-1-1.3-0.7-2.8-0.7-4.4c0-4.4,0-8.6,0.1-13c0.1-5.5-0.1-10.9,0.2-16.3c0.2-4-0.5-8.4,0.9-12.2
		C59.7,9,60,8.5,60.3,8.3c0.6-0.4,1.3-0.2,1.8,0.3c1.3,1.4,0.9,3.7,1,5.4c0.1,1.6,0.2,3.2,0.1,4.7c-0.2,5.6-0.5,11.3-0.7,17
		c-0.1,2.9-0.1,5.8-0.1,8.6c0,1.4,0.1,2.9,0.1,4.4c0,0.7-0.1,4,0.6,4.5c0.5-0.4,0.7-1.7,0.8-2.3l0.7-2.8c0.3-1.3,0.6-2.7,0.9-4
		c1.8-8.3,3.7-17.1,4.7-25.3l0.8-6.4c0.2-1.1,0.1-2.9,1.2-3.5c2.8-1.8,2.7,4,2.7,5.5c-0.1,4.7-0.4,9.5-0.6,14.3
		c-0.2,7.7-0.2,15.4,0,23.1c0,1,0.1,2.1-0.2,3C74.2,55,74.2,55.1,74.2,55.2z"/>
	<path class="st1" d="M93.8,32.8c0,0.1-0.1,0.2-0.2,0.5c-0.4,0.7-1.8,0.3-2.5,0.2c-1.7,0-3.4-0.1-5.1-0.2c-0.8,0-1.8-0.1-2.6-0.1
		c-0.5,0-1.3,0.2-1.8,0.1c-0.2-0.1-0.4-0.3-0.4-0.6c0-0.2,0.2-0.5,0.3-0.5c3.2-0.7,6.5-0.5,9.7-0.2C91.7,32.1,93.7,32,93.8,32.8z"/>
	<path class="st0" d="M100.4,47.7c-0.1-7.1-0.3-14.3-0.5-21.5c0-2.7,0-5.4-0.1-8.1c-0.1-2.9,0.2-5.6,0.2-8.4
		c0.1-0.9,0.2-1.2,1.2-1.2c1.4-0.1,2.9-0.2,4.2,0c1.7,0.2,3.1,1.1,4.4,2.1c1.4,1.2,2.4,2.8,3.2,4.5c0.4,0.9,0.6,2.2,0.7,3.2
		c0.2,1.3,0.3,2.5,0.3,3.8c-0.1,2.7-0.6,6-2.7,8c-0.6,0.6-1.3,1-1.9,1.4c-0.6,0.4-1,0.9-1.6,1.4c-0.2,0.2-0.2,0.4,0.1,0.6l0.6,0.5
		c2.9,1.5,4.4,4.8,5,7.7c1,3.9,0.9,8.6-1.2,12.2c-1.1,1.9-3.6,2.3-5.6,2.5c-1.8,0.2-3.4,0-5.1-0.1c-0.7,0-0.9-0.2-1-0.9
		c-0.1-0.5-0.2-1-0.2-1.5C100.5,51.9,100.5,49.8,100.4,47.7z M103.9,28.7c0,0.7,0.1,1.3,0.1,2c0.2,2.9,4.3-0.2,5.1-1.3
		c1.2-1.5,1.3-3.3,1.5-5.1c0.2-3.9-0.6-8-2.5-11.4c-0.7-1.5-1.8-2.4-3.4-2.8c-0.7-0.2-1.1,0.2-1.2,0.9c-0.2,3.1,0.1,6.4,0.1,9.5
		C103.6,23.2,103.7,26,103.9,28.7z M104.4,49.6c0,1.1,0,2.1-0.1,3.1c-0.1,2.5,0.2,1.8,2,2.3c0.2,0.1,0.4,0,0.6,0
		c3.1-0.2,3.4-2.9,3.7-5.5c0.4-4.3-0.7-8.5-2.6-12.2c-0.5-1.1-1.3-1.8-2.2-2.6c-0.4-0.4-0.8-0.4-1.3-0.1c-0.8,0.6-0.4,2.3-0.4,3.1
		c0.1,1.5,0.1,2.9,0.2,4.5C104.3,44.7,104.4,47.2,104.4,49.6z"/>
	<path class="st1" d="M132.9,32.8c0,0.1-0.1,0.2-0.2,0.5c-0.4,0.7-1.8,0.3-2.5,0.2c-1.7,0-3.4-0.1-5.1-0.2c-0.8,0-1.8-0.1-2.6-0.1
		c-0.5,0-1.3,0.2-1.8,0.1c-0.2-0.1-0.4-0.3-0.4-0.6c0-0.2,0.2-0.5,0.3-0.5c3.2-0.7,6.5-0.5,9.7-0.2C130.8,32.1,132.8,32,132.9,32.8z
		"/>
	<path class="st0" d="M144,30.7c0.7,0.6,1.7,0.5,2.5,0.8c0.9,0.2,1.8,0.8,2.4,1.5c1.4,1.4,2.3,3.4,2.9,5.4c0.7,3.3,0.9,7.5,0.7,10.8
		c-0.2,2-0.8,5-2.9,6c-0.5,0.2-1,0.4-1.6,0.4c-2.2,0.3-4.5,1-6.8,0.5c-2.2-0.5-2.3-2.9-2.3-5l0.2-24c0.1-4,0.1-8.1,0.2-12
		c0-1.5-0.3-3.1,0-4.6c0.3-1.6,1.8-1.7,3.3-2c2.3-0.4,4.5-0.3,6.7,0.1c0.8,0.2,2.7,0.4,3.4,1c0.6,0.7,0.2,1.4-0.7,1.5
		c-0.5,0-0.9-0.2-1.4-0.4c-1.7-0.7-4.1-1.2-5.9-0.7c-1.9,0.6-1.5,2.3-1.5,3.9l0.2,10.1c0.1,1.8,0.1,3.5,0.2,5.3
		C143.5,30,143.7,30.3,144,30.7z M143.2,33.7c-0.2,0.3-0.1,0.8-0.2,1.5c0,2.1-0.1,4.2-0.2,6.3c0,3.3,0,6.5,0.1,9.8
		c0,0.7-0.2,2.2,0.4,2.9c0.7,0.7,2.7,0.4,3.4,0c0.7-0.3,1.3-1.1,1.6-1.8c1.1-2.8,0.6-6.3,0.2-9.2c-0.2-1.8-0.7-3.7-0.9-5.5
		c-0.2-1.5-0.9-2.7-2.1-3.7c-0.4-0.2-1.3-0.5-1.8-0.4L143.2,33.7z"/>
	<path class="st0" d="M157.3,35c0.1-3.4,0.2-7,0.7-10.4c0.3-2.8,0.7-5.5,1.7-8.1c1.2-3,4.8-9.7,8.8-6.5c1.3,1,2,2.3,2.4,3.9
		c0.4,1.8,0.8,3.8,1,5.6c0.7,6.4,0.7,12.8,0.2,19.2c-0.2,3.2-0.6,6.3-1.1,9.5c-0.5,3-0.8,5.5-2.9,7.9c-2.2,2.5-6-0.4-7.3-2.4
		c-2.7-4.1-3.1-8.5-3.4-13.2C157.3,38.6,157.3,36.9,157.3,35z M162.2,31c0,6.8,0.6,13.5,1.9,20.1c0.4,1.9,2.4,5.7,3.9,2.3
		c0.3-0.7,0.6-1.5,0.8-2.3c0.2-0.7,0.2-1.5,0.5-2.3c0.3-1.4,0.6-2.9,0.6-4.4c0.2-8,1.1-15.8,0.5-23.7c-0.2-2.2-0.3-4.3-0.9-6.3
		c-0.2-0.9-0.7-1.8-1.2-2.7c-0.6-1-2.1-1.1-2.9-0.4c-2.4,1.8-2.4,5-2.7,7.7C162.4,23,162.2,27,162.2,31z"/>
	<path class="st0" d="M182.7,19.4c0,2.9,0,5.6-0.1,8.4c0,1.1-0.2,2.1-0.2,3.2c0,0.1,0.1,0.4,0.2,0.4c0.2,0.1,0.6,0.1,0.7-0.1
		c0.6-0.6,1.3-1.3,1.6-2c1.2-2.4,2.2-4.9,2.8-7.5c0.2-0.8,0.6-1.5,0.7-2.3c0.8-2.6,0.9-5.3,1.2-8c0.1-0.3,0.1-0.7,0.1-1.1
		c0.1-0.6,0.4-0.9,0.9-1.1c0.6-0.2,1.1,0,1.3,0.7c0.4,1.3,0.2,2.8,0.2,4.2c-0.1,3-0.8,5.8-1.7,8.6c-0.6,2.3-1.5,4.5-2.9,6.4
		l-2.6,3.3c-0.5,0.6-0.5,1,0.1,1.5c1.9,1.5,2.9,3.6,3.6,5.9c0.3,1,0.7,1.9,1.1,2.8c0.5,1.1,0.8,2.1,0.9,3.2l1,6.7
		c0.1,0.6,0.2,1.2,0.2,1.8c0.2,2-0.7,2.7-2.7,2.2c-0.2-0.1-0.5-0.3-0.7-0.6c-0.2-0.4-0.2-0.9-0.2-1.4c-0.2-3.4-0.7-6.8-1.6-10.1
		l-2-6.5c-0.2-0.7-0.7-1.3-1.1-1.8c-0.2-0.2-0.6-0.2-0.8-0.2c-0.1,0-0.2,0.4-0.2,0.6c-0.2,6.2-0.3,12.6-0.1,18.8
		c0.1,0.7-0.1,1-0.8,1.2c-0.2,0.1-0.6,0.2-0.9,0.2c-1.2,0-1.9-0.7-1.9-1.9c-0.2-8.4-0.2-16.7-0.1-25.1c0-4.8-0.2-9.7,0.1-14.5
		c0.1-1.6-0.1-3.2,0-4.7c0-1,0.2-1.3,1.2-1.3c0.3-0.1,0.7-0.1,1.1,0c1.3,0.1,1.8,0.6,1.8,2C182.6,14,182.6,16.8,182.7,19.4
		L182.7,19.4L182.7,19.4z"/>
	<path class="st0" d="M214.1,55.2c-0.4,1.3-1.3,2.3-2.7,1.8c-1.1-0.3-1.3-1.8-1.3-2.9l-0.2-10.3c-0.1-1.6-0.2-3.3-0.2-5
		c-0.1-1.5,0.3-4.1-0.2-5.5c-0.7,1.2-1.3,4-1.5,5.4c-0.3,1.6-0.8,3.1-1.2,4.6c-0.4,2.1-0.9,4.2-1.3,6.2c-0.4,1.8-0.7,3.9-1.8,5.5
		c-1.3,2.1-3,2.4-4.6,0.3c-1-1.3-0.7-2.8-0.7-4.4c0-4.4,0-8.6,0.1-13c0.1-5.5-0.1-10.9,0.2-16.3c0.2-4-0.5-8.4,0.9-12.2
		c0.2-0.4,0.4-0.9,0.7-1.1c0.6-0.4,1.3-0.2,1.8,0.3c1.3,1.4,0.9,3.7,1,5.4c0.1,1.6,0.2,3.2,0.1,4.7c-0.2,5.6-0.5,11.3-0.7,17
		c-0.1,2.9-0.1,5.8-0.1,8.6c0,1.4,0.1,2.9,0.1,4.4c0,0.7-0.1,4,0.6,4.5c0.5-0.4,0.7-1.7,0.8-2.3l0.7-2.8c0.3-1.3,0.6-2.7,0.9-4
		c1.8-8.3,3.7-17.1,4.7-25.3l0.8-6.4c0.2-1.1,0.1-2.9,1.2-3.5c2.8-1.8,2.7,4,2.7,5.5c-0.1,4.7-0.4,9.5-0.6,14.3
		c-0.2,7.7-0.2,15.4,0,23.1c0,1,0.1,2.1-0.2,3C214.2,55,214.2,55.1,214.1,55.2z"/>
</g>
</svg>
