<?xml version="1.0" encoding="UTF-8"?>
<!-- Generator: Adobe Illustrator 24.0.0, SVG Export Plug-In . SVG Version: 6.00 Build 0)  -->
<svg version="1.1" id="Layer_1" xmlns="http://www.w3.org/2000/svg" xmlns:xlink="http://www.w3.org/1999/xlink" x="0px" y="0px" viewBox="0 0 150 250" style="enable-background:new 0 0 150 250;" xml:space="preserve">
<style type="text/css">
	.st0{fill:#FFFFFF;}
</style>
<path id="Path_19" class="st0" d="M76.1,133.4c1.7-2.7,2.9-5.8,3.4-9c0-3.1-1.3-6.1-3.4-8.3L8.3,45.5c-9.4-10-9.4-25.5-0.1-35.5  l0.3-0.4c9.1-9.7,24.3-10.2,34-1.2c0.4,0.3,0.7,0.7,1.1,1.1l101.7,105.9c2.2,2.4,3.5,5.6,3.5,8.9c-0.5,3.4-1.7,6.6-3.5,9.5  L43.6,240.5c-9.2,9.7-24.4,10.1-34.1,0.9c-0.4-0.3-0.7-0.7-1-1l-0.3-0.4c-9.3-10.1-9.2-25.6,0.1-35.7L76.1,133.4z"/>
<script xmlns=""/></svg>