<?xml version="1.0" encoding="utf-8"?>
<!-- Generator: Adobe Illustrator 24.0.0, SVG Export Plug-In . SVG Version: 6.00 Build 0)  -->
<svg version="1.1" id="Layer_1" xmlns="http://www.w3.org/2000/svg" xmlns:xlink="http://www.w3.org/1999/xlink" x="0px" y="0px"
	 viewBox="0 0 296.1 296.1" style="enable-background:new 0 0 296.1 296.1;" xml:space="preserve">
<style type="text/css">
	.st0{fill:#F46D28;}
</style>
<g>
	<g>
		<g>
			<path class="st0" d="M148.1,66.8c-48.9,0-88.8,39.8-88.8,88.8s39.8,88.8,88.8,88.8s88.8-39.8,88.8-88.8S197,66.8,148.1,66.8z
				 M148.1,232.8c-42.5,0-77.2-34.6-77.2-77.2s34.6-77.2,77.2-77.2s77.2,34.6,77.2,77.2S190.6,232.8,148.1,232.8z"/>
			<path class="st0" d="M126.6,60.4h42.9c3.2,0,5.8-2.6,5.8-5.8s-2.6-5.8-5.8-5.8h-42.9c-3.2,0-5.8,2.6-5.8,5.8
				S123.4,60.4,126.6,60.4z"/>
			<path class="st0" d="M287.9,52.9h-54.5c-3.2,0-5.8,2.6-5.8,5.8V72h-1.3L186.1,32c-1.1-1.1-2.6-1.7-4.1-1.7h-68
				c-1.5,0-3,0.6-4.1,1.7L69.9,72H8.2c-3.2,0-5.8,2.6-5.8,5.8V260c0,3.2,2.6,5.8,5.8,5.8h279.6c3.2,0,5.8-2.6,5.8-5.8V77.8V58.7
				C293.7,55.5,291.1,52.9,287.9,52.9z M282.1,254.2H14V83.6h58.3c1.5,0,3-0.6,4.1-1.7l40.1-40.1h63.2L219.7,82
				c1.1,1.1,2.6,1.7,4.1,1.7h58.3V254.2z M282.1,72h-42.9v-7.5h42.9V72z"/>
			<path class="st0" d="M40.7,94.1c-9,0-16.2,7.3-16.2,16.2s7.3,16.2,16.2,16.2S57,119.3,57,110.3S49.7,94.1,40.7,94.1z M40.7,115
				c-2.6,0-4.6-2.1-4.6-4.6c0-2.6,2.1-4.6,4.6-4.6c2.6,0,4.6,2.1,4.6,4.6C45.4,112.9,43.3,115,40.7,115z"/>
			<path class="st0" d="M148.1,90c-36.2,0-65.6,29.4-65.6,65.6s29.4,65.6,65.6,65.6s65.6-29.4,65.6-65.6S184.2,90,148.1,90z
				 M148.1,209.5c-29.8,0-54-24.2-54-54s24.2-54,54-54s54,24.2,54,54S177.8,209.5,148.1,209.5z"/>
			<path class="st0" d="M115.3,124.3c-8.1,8.5-12.5,19.6-12.5,31.3c0,3.2,2.6,5.8,5.8,5.8s5.8-2.6,5.8-5.8c0-8.7,3.3-17,9.3-23.3
				c2.2-2.3,2.1-6-0.2-8.2C121.2,121.9,117.6,122,115.3,124.3z"/>
			<path class="st0" d="M148.1,110.3c-4.1,0-8.1,0.5-12,1.6c-3.1,0.8-4.9,4-4.1,7.1c0.7,2.6,3,4.3,5.6,4.3c0.5,0,1-0.1,1.5-0.2
				c2.9-0.8,5.9-1.2,8.9-1.2c3.2,0,5.8-2.6,5.8-5.8S151.3,110.3,148.1,110.3z"/>
			<path class="st0" d="M267,242.6c3.2,0,5.8-2.6,5.8-5.8v-95.7c0-3.2-2.6-5.8-5.8-5.8s-5.8,2.6-5.8,5.8v95.7
				C261.2,240,263.8,242.6,267,242.6z"/>
			<path class="st0" d="M267,119c3.2,0,5.8-2.6,5.8-5.8v-11.6c0-3.2-2.6-5.8-5.8-5.8s-5.8,2.6-5.8,5.8v11.6
				C261.2,116.4,263.8,119,267,119z"/>
		</g>
	</g>
</g>
</svg>
