<?xml version="1.0" encoding="UTF-8"?>
<!-- Generator: Adobe Illustrator 24.0.0, SVG Export Plug-In . SVG Version: 6.00 Build 0)  -->
<svg version="1.1" id="Capa_1" xmlns="http://www.w3.org/2000/svg" xmlns:xlink="http://www.w3.org/1999/xlink" x="0px" y="0px" viewBox="0 0 489.8 489.8" style="enable-background:new 0 0 489.8 489.8;" xml:space="preserve">
<style type="text/css">
	.st0{fill:#F46D28;}
</style>
<g id="XMLID_95_">
	<path id="XMLID_98_" class="st0" d="M155.2,305.6c-2.1,0.2-4.2,0.3-6.2,0.3c-5.7,0-11.2-0.8-16.7-2.1L6.8,429.3   c-6.2,6.1-6.2,16.1,0,22.3l32.5,32.5c6.2,6.1,16.1,6.1,22.3,0l150.8-150.8l-27.9-30.1L155.2,305.6z"/>
	<path id="XMLID_97_" class="st0" d="M485.3,104.6c-5.9-5.9-15.4-5.9-21.3,0L382.7,186c-7.7,7.7-20.2,7.7-27.8,0   c-7.7-7.7-7.7-20.1,0-27.8l80.9-80.9c6.1-6.1,6.1-16,0-22.2c-6.1-6.1-16.1-6.1-22.2,0L332.8,136c-7.7,7.7-20.1,7.7-27.8,0   c-7.7-7.7-7.7-20.1,0-27.8l81.3-81.3c5.9-5.9,5.9-15.4,0-21.3c-5.9-5.9-15.4-5.9-21.3,0L273.4,97c-22,22-28.9,52.9-21.8,81   l61.3,61.3c28.1,7.1,59,0.1,81-21.8l91.5-91.5C491.2,120.1,491.2,110.5,485.3,104.6z"/>
	<path id="XMLID_96_" class="st0" d="M41.1,13.8c-3.1-3.1-7.4-4.9-11.7-4.9c-0.9,0-1.9,0.1-2.8,0.2c-5.3,0.9-9.8,4.3-12.2,9.1   C-12.4,73.7-1.2,139.9,42.3,183.4l77.8,77.8c7.7,7.7,18.1,11.9,28.8,11.9c1.2,0,2.3,0,3.5-0.1l45.2-3.9l197,212.5   c3.1,3.3,7.3,5.2,11.9,5.3c0.1,0,0.2,0,0.3,0c4.4,0,8.6-1.7,11.8-4.9l33.7-33.7c3.1-3.1,4.9-7.3,4.9-11.7c0-4.4-1.7-8.6-4.8-11.7   L41.1,13.8z"/>
</g>
<script xmlns=""/></svg>