<?xml version="1.0" encoding="UTF-8"?>
<!-- Generator: Adobe Illustrator 24.0.0, SVG Export Plug-In . SVG Version: 6.00 Build 0)  -->
<svg version="1.1" id="Layer_1" xmlns="http://www.w3.org/2000/svg" xmlns:xlink="http://www.w3.org/1999/xlink" x="0px" y="0px" viewBox="0 0 40 40" style="enable-background:new 0 0 40 40;" xml:space="preserve">
<style type="text/css">
	.st0{fill:#F46D28;}
</style>
<g>
	<g>
		<g>
			<path class="st0" d="M34.73,12.53c0-2.18-1.77-3.95-3.95-3.95s-3.95,1.77-3.95,3.95c0,2.18,1.77,3.95,3.95,3.95     S34.73,14.71,34.73,12.53z M28.11,12.53c0-1.47,1.2-2.67,2.67-2.67c1.47,0,2.67,1.2,2.67,2.67s-1.2,2.67-2.67,2.67     C29.31,15.2,28.11,14,28.11,12.53z"/>
			<path class="st0" d="M39.75,7.06c-0.15-0.12-0.34-0.17-0.53-0.14L37.23,7.3c-1.52-1.88-3.85-3.08-6.45-3.08     c-3.22,0-6.02,1.85-7.4,4.53l-9.71-1.83c-0.08-0.01-0.16-0.01-0.24,0L0.54,9.36c-0.3,0.06-0.52,0.32-0.52,0.63v25.15     c0,0.19,0.08,0.37,0.23,0.49c0.12,0.1,0.26,0.15,0.41,0.15c0.04,0,0.08,0,0.12-0.01l12.78-2.41l12.77,2.41     c0.08,0.01,0.16,0.01,0.24,0l12.9-2.43c0.3-0.06,0.52-0.32,0.52-0.63V7.56C39.98,7.37,39.9,7.19,39.75,7.06z M12.91,30.01     l-9.49,1.79v-3.82c3.32-0.3,4.9-2.96,6.31-5.32c1.01-1.69,1.87-3.14,3.18-3.75V30.01z M12.91,17.53     c-0.61,0.2-1.19,0.53-1.72,1.01c-1.02,0.9-1.8,2.2-2.55,3.47c-1.34,2.25-2.62,4.39-5.21,4.69v-14.4l9.49-1.79L12.91,17.53     L12.91,17.53z M12.91,9.19L2.67,11.13c-0.3,0.06-0.52,0.32-0.52,0.63v20.81c0,0.19,0.08,0.37,0.23,0.49     c0.15,0.12,0.34,0.17,0.53,0.14l10.01-1.89v0.87L1.3,34.36V10.52l11.62-2.19V9.19z M14.19,8.33L14.19,8.33l8.69,1.64     c-0.09,0.27-0.16,0.54-0.22,0.83l-8.47-1.6V8.33z M25.81,34.36l-11.62-2.19v-0.87l11.62,2.19V34.36z M25.81,32.2l-11.62-2.19     V18.59c0.32-0.02,0.67,0.01,1.05,0.08c2.45,0.46,3.96,2.38,5.56,4.42c1.15,1.46,2.33,2.97,3.9,3.9c0.36,0.21,0.73,0.39,1.11,0.53     L25.81,32.2L25.81,32.2z M25.81,26.13L25.81,26.13c-1.58-0.74-2.74-2.22-4-3.83c-1.68-2.14-3.41-4.34-6.33-4.89     c-0.45-0.08-0.87-0.12-1.28-0.1v-6.81l8.3,1.57c-0.01,0.16-0.01,0.31-0.01,0.47c0,1.13,0.44,3.6,3.33,7.54L25.81,26.13     L25.81,26.13z M23.76,12.53c0-3.87,3.15-7.02,7.02-7.02c3.87,0,7.02,3.15,7.02,7.02c0,1.64-1.13,4.12-3.09,6.8     c-1.82,2.48-3.46,3.91-3.93,4.07c-0.47-0.16-2.11-1.59-3.93-4.07C24.88,16.65,23.76,14.17,23.76,12.53z M31.39,26.58     c-0.11-0.34-0.47-0.52-0.81-0.41c-1.38,0.45-2.52,0.54-3.5,0.37v-4.85c0.51,0.6,1.02,1.15,1.51,1.62     c1.44,1.38,1.99,1.38,2.19,1.38s0.75,0,2.19-1.38c0.84-0.81,1.78-1.89,2.64-3.05c0.35-0.47,0.67-0.93,0.96-1.36v11.51l-9.49,1.79     v-4.37c1.19,0.17,2.48,0.02,3.9-0.44C31.32,27.27,31.5,26.91,31.39,26.58z M27.08,34.36V33.5l10.25-1.93     c0.3-0.06,0.52-0.32,0.52-0.63V16.72c0.39-0.78,0.67-1.46,0.85-2.05v17.5l0,0L27.08,34.36z M38.7,10.04     c-0.17-0.56-0.41-1.08-0.69-1.58l0.69-0.13V10.04z"/>
		</g>
	</g>
</g>
<script xmlns=""/></svg>