<?xml version="1.0" encoding="UTF-8"?>
<!-- Generator: Adobe Illustrator 24.0.0, SVG Export Plug-In . SVG Version: 6.00 Build 0)  -->
<svg version="1.1" id="Layer_1" xmlns="http://www.w3.org/2000/svg" xmlns:xlink="http://www.w3.org/1999/xlink" x="0px" y="0px" viewBox="0 0 300 425" style="enable-background:new 0 0 300 425;" xml:space="preserve">
<style type="text/css">
	.st0{fill:#F46D28;}
</style>
<g>
	<path class="st0" d="M123.4,388.8l8.3,16.6c3.5,6.9,10.5,11.3,18.3,11.3c7.7,0,14.8-4.4,18.3-11.3l17.6-35.2   c21.4-42.9,47.9-84.4,73.4-124.5l11.6-18.3c14.4-22.8,22-49.1,22-76.1c0-40.7-17.4-79.6-47.8-106.7C214.8,17.4,174,4.5,133.3,9.2   C69.7,16.5,17.2,67.6,8.4,130.9c-5.2,37.5,4.2,74.7,26.4,104.9C69.4,282.7,96.5,334.9,123.4,388.8z M150,90   c33.8,0,61.3,27.5,61.3,61.3s-27.5,61.3-61.3,61.3S88.7,185,88.7,151.2C88.7,117.5,116.2,90,150,90z"/>
</g>
<script xmlns=""/></svg>