<?xml version="1.0" encoding="UTF-8"?>
<!-- Generator: Adobe Illustrator 24.0.0, SVG Export Plug-In . SVG Version: 6.00 Build 0)  -->
<svg version="1.1" id="Layer_1" xmlns="http://www.w3.org/2000/svg" xmlns:xlink="http://www.w3.org/1999/xlink" x="0px" y="0px" viewBox="0 0 40 40" style="enable-background:new 0 0 40 40;" xml:space="preserve">
<style type="text/css">
	.st0{fill:#F46D28;}
</style>
<g>
	<g>
		<rect x="8.3" y="20.3" class="st0" width="1.2" height="1.2"/>
		<rect x="10.8" y="20.3" class="st0" width="1.2" height="1.2"/>
		<rect x="13.2" y="20.3" class="st0" width="1.2" height="1.2"/>
		<rect x="15.7" y="20.3" class="st0" width="1.2" height="1.2"/>
		<rect x="18.2" y="20.3" class="st0" width="1.2" height="1.2"/>
		<rect x="20.7" y="20.3" class="st0" width="1.2" height="1.2"/>
		<rect x="23.2" y="20.3" class="st0" width="1.2" height="1.2"/>
		<rect x="25.7" y="20.3" class="st0" width="1.2" height="1.2"/>
		<rect x="28.2" y="20.3" class="st0" width="1.2" height="1.2"/>
		<polygon class="st0" points="18.2,9.1 19.5,9.1 19.5,7.9 18.2,7.9 18.2,6.6 19.5,6.6 19.5,5.4 18.2,5.4 18.2,2.9 19.6,2.9     23.9,16.8 25,16.4 20.5,1.7 17,1.7 17,16.6 18.2,16.6   "/>
		<path class="st0" d="M37.2,21l-2.8-2.8c-0.6-0.6-1.4-0.9-2.2-0.9H8l-1.4-2.4l0,0l1.1-6.3H4.7l-0.6,2.1L3.6,9.7H0.2v10.8l0.9,0.8    L0,25.3h3.1l0.6-1.5l3.8,3.4H17v11.2h3.5L24,27.1h13.2c1.6,0,2.8-1.3,2.8-2.8V24C40,22.4,38.8,21.1,37.2,21z M5.6,9.7h0.7    l-0.6,3.5L5,12L5.6,9.7z M2.2,24.1H1.6l1.5-5.6h1.2L2.2,24.1z M7.9,25.9l-0.7-0.7H17v0.7H7.9z M23.9,23.2l-4.2,13.9h-1.4v-2.5h1.3    v-1.2h-1.3v-1.3h1.3v-1.2h-1.3v-8.1H17v1.3H5.8l-1.7-1.6L6,17.2H2.2l-0.8,2.8l0,0V11h1.5l4.4,7.5h24.8c0.5,0,1,0.2,1.3,0.5    l1.3,1.3h-2.3v1.2H36l0.1,0.1l-2,2.5h-9.2l0.1-0.5L23.9,23.2z M37.2,25.9H24.3l0.2-0.7h10.2l2.5-3.1c0.9,0.1,1.6,0.9,1.6,1.9v0.3    h0C38.8,25.2,38.1,25.9,37.2,25.9z"/>
	</g>
</g>
<script xmlns=""/></svg>