<?xml version="1.0" encoding="utf-8"?>
<!-- Generator: Adobe Illustrator 24.0.0, SVG Export Plug-In . SVG Version: 6.00 Build 0)  -->
<svg version="1.1" id="Layer_1" xmlns="http://www.w3.org/2000/svg" xmlns:xlink="http://www.w3.org/1999/xlink" x="0px" y="0px"
	 viewBox="0 0 576 512" style="enable-background:new 0 0 576 512;" xml:space="preserve">
<style type="text/css">
	.st0{fill:#FFFFFF;}
</style>
<path class="st0" d="M192.4,416.1c0,35.4-28.7,64-64,64s-64-28.7-64-64s28.7-64,64-64S192.4,380.7,192.4,416.1L192.4,416.1z
	 M368.1,463.4c-8.4-154.6-132.2-278.6-287-287c-9.1-0.5-16.8,6.8-16.8,16v48.1c0,8.4,6.5,15.5,14.9,16
	c111.8,7.3,201.5,96.7,208.8,208.8c0.5,8.4,7.6,14.9,16,14.9h48.1C361.2,480.2,368.6,472.5,368.1,463.4L368.1,463.4z M512.3,463.7
	C503.9,229.8,315.8,40.6,80.8,32.2c-9-0.3-16.5,7-16.5,16v48.1c0,8.6,6.8,15.6,15.5,16c191.2,7.8,344.6,161.3,352.5,352.5
	c0.4,8.6,7.4,15.5,16,15.5h48.1C505.4,480.2,512.7,472.7,512.3,463.7z"/>
</svg>
