<?xml version="1.0" encoding="UTF-8"?>
<!-- Generator: Adobe Illustrator 24.0.0, SVG Export Plug-In . SVG Version: 6.00 Build 0)  -->
<svg version="1.1" id="Layer_1" xmlns="http://www.w3.org/2000/svg" xmlns:xlink="http://www.w3.org/1999/xlink" x="0px" y="0px" viewBox="0 0 304 304" style="enable-background:new 0 0 304 304;" xml:space="preserve">
<style type="text/css">
	.st0{fill:#F46D28;}
</style>
<g>
	<g>
		<g>
			<path class="st0" d="M278.4,78.8h-39.8v-3.4c0-23.8-19.3-43.1-43.1-43.1h-87c-23.8,0-43.1,19.3-43.1,43.1v3.4H25.6     c-13.2,0-24,10.7-24,24v144.9c0,13.2,10.7,24,24,24h252.8c13.2,0,24-10.7,24-24V102.8C302.4,89.6,291.6,78.8,278.4,78.8z      M278.4,88.4c7.9,0,14.4,6.5,14.4,14.4V127c-20.3-2.2-36.4-18.3-38.6-38.6H278.4z M75,75.5C75,57,90,42,108.5,42h87     C214,42,229,57,229,75.5v3.4h-16v-3.4c0-9.7-7.9-17.6-17.6-17.6h-87c-9.7,0-17.6,7.9-17.6,17.6v3.4H75L75,75.5L75,75.5z      M203.5,75.5v3.4h-103v-3.4c0-4.4,3.6-8,8-8h87C199.9,67.5,203.5,71.1,203.5,75.5z M11.2,102.8c0-7.9,6.5-14.4,14.4-14.4h24.2     c-2.2,20.3-18.3,36.4-38.6,38.6C11.2,127,11.2,102.8,11.2,102.8z M25.6,262c-7.9,0-14.4-6.4-14.4-14.4v-24.2     c20.3,2.2,36.4,18.3,38.6,38.6H25.6z M292.8,247.7c0,7.9-6.4,14.4-14.4,14.4h-24.2c2.2-20.3,18.3-36.4,38.6-38.6V247.7     L292.8,247.7z M292.8,213.8L292.8,213.8c-25.5,2.3-45.9,22.7-48.2,48.2H59.4c-2.3-25.5-22.7-45.9-48.2-48.2v-77.2     c25.5-2.3,45.9-22.7,48.2-48.2h185.1c2.3,25.5,22.7,45.9,48.2,48.2L292.8,213.8L292.8,213.8z"/>
			<path class="st0" d="M165.3,129.6H132c-2.6,0-4.8,2.1-4.8,4.8s2.1,4.8,4.8,4.8h33.3c2.6,0,4.8-2.1,4.8-4.8     C170.1,131.8,168,129.6,165.3,129.6z"/>
			<path class="st0" d="M250.3,125.2h-42.3c-1.3,0-2.5,0.5-3.4,1.4l-3.6,3.6v-8.3c0-11.5-9.3-20.8-20.8-20.8H117     c-11.5,0-20.8,9.3-20.8,20.8v24.9c0,11.5,9.3,20.8,20.8,20.8h46.6l-9.8,9.8c-2.9,2.9-4.4,6.7-4.4,10.8c0,4.1,1.6,7.9,4.4,10.8     l20.2,20.2c2.9,2.9,6.7,4.4,10.8,4.4s7.9-1.6,10.8-4.4l64.5-64.5c5.9-5.9,5.9-15.6,0-21.5l-6.5-6.5     C252.8,125.7,251.6,125.2,250.3,125.2z M238.8,134.8l-5.6,5.6c-2.2,2.2-5.8,2.2-8,0l-5.6-5.6H238.8z M117,158     c-6.2,0-11.2-5-11.2-11.2v-24.9c0-6.2,5-11.2,11.2-11.2h63.3c6.2,0,11.2,5,11.2,11.2v17.9l-1.9,1.9v-14.7     c0-7.9-6.4-14.4-14.4-14.4h-53c-7.9,0-14.4,6.4-14.4,14.4v14.7c0,7.9,6.5,14.4,14.4,14.4h53l-1.9,1.9L117,158L117,158z      M180,127.1v14.7c0,2.6-2.1,4.8-4.8,4.8h-53c-2.6,0-4.8-2.1-4.8-4.8v-14.7c0-2.6,2.1-4.8,4.8-4.8h53     C177.8,122.3,180,124.4,180,127.1z M253.4,147.8l-64.5,64.5c-1.1,1.1-2.5,1.6-4,1.6c-1.5,0-2.9-0.6-4-1.6l-20.2-20.2     c-2.2-2.2-2.2-5.8,0-8l47.4-47.4l10.4,10.4c3,3,6.9,4.4,10.8,4.4c3.9,0,7.8-1.5,10.8-4.4l10.4-10.4l3.1,3.1     C255.6,142.1,255.6,145.6,253.4,147.8z"/>
			<path class="st0" d="M86.3,164.8c-21,0-38,17.1-38,38c0,21,17.1,38,38,38s38-17.1,38-38S107.3,164.8,86.3,164.8z M86.3,231.3     c-15.7,0-28.4-12.8-28.4-28.4s12.8-28.4,28.4-28.4s28.4,12.8,28.4,28.4S102,231.3,86.3,231.3z"/>
			<path class="st0" d="M86.3,177c-14.3,0-25.9,11.6-25.9,25.9s11.6,25.9,25.9,25.9s25.9-11.6,25.9-25.9     C112.2,188.6,100.6,177,86.3,177z M86.3,219.1c-9,0-16.3-7.3-16.3-16.3s7.3-16.3,16.3-16.3s16.3,7.3,16.3,16.3     C102.6,211.8,95.3,219.1,86.3,219.1z"/>
			<path class="st0" d="M213.6,147.4c-1.9-1.9-4.9-1.9-6.8,0l-38,38c-1.9,1.9-1.9,4.9,0,6.8c0.9,0.9,2.2,1.4,3.4,1.4     c1.2,0,2.5-0.5,3.4-1.4l38-38C215.5,152.3,215.5,149.3,213.6,147.4z"/>
			<path class="st0" d="M218.9,159.4l-38,38c-1.9,1.9-1.9,4.9,0,6.8c0.9,0.9,2.2,1.4,3.4,1.4c1.2,0,2.5-0.5,3.4-1.4l38-38     c1.9-1.9,1.9-4.9,0-6.8C223.8,157.6,220.7,157.6,218.9,159.4z"/>
			<circle class="st0" cx="86.3" cy="202.8" r="4.7"/>
		</g>
	</g>
</g>
<script xmlns=""/></svg>